…
Did you observe any interesting relationships between the other features

(not the main feature(s) of interest)?

Its interesting to see the loan original amount growed significantly from 2012 to 2014. But on the contrary, the interest and fees went down dramatically from 2012 to 2014. Even they followed the same pattern as loan original amount before 2012.

What was the strongest relationship you found?

The prosper rating and borrower rates have the strongest relationship.

Multivariate Plots Section

In this Section, I will analyse the client quality, loan provider profitability and credit risk together. In each plot, we can have an overall profile regarding to the three aspects.

## # A tibble: 50 x 5
##    IncomeRange ProsperRating..Alp~ mean_BorrowerAPR median_Borrower~     n
##    <fct>       <fct>                          <dbl>            <dbl> <int>
##  1 $0          ""                            0.203            0.182    576
##  2 $0          A                             0.129            0.129      2
##  3 $0          B                             0.181            0.183      3
##  4 $0          C                             0.228            0.228      2
##  5 $0          D                             0.285            0.290     15
##  6 $0          E                             0.348            0.352      6
##  7 $0          HR                            0.344            0.354     17
##  8 $1-24,999   ""                            0.206            0.190   2620
##  9 $1-24,999   A                             0.138            0.137    378
## 10 $1-24,999   AA                            0.0889           0.0864    88
## # ... with 40 more rows
…
As the income increases, the HR prosper rating has the higest borrower APR, in contrary the AA prosper rating has the lowest borrower APR. However, its interesting to see borrower rate doesnt always go up while income increase. For example, borrower APR of the E prosper rating goes down as the income grow. But if the borrower is not employed, the borrower APR is always higher than any other income range.

## # A tibble: 50 x 4
##    LoanOriginalAmount ProsperRating..Alpha. mean_BorrowerAPR     n
##                 <int> <fct>                            <dbl> <int>
##  1               1000 ""                             NA       2445
##  2               1000 A                               0.137     82
##  3               1000 AA                              0.0746   105
##  4               1000 B                               0.183     16
##  5               1000 C                               0.224    173
##  6               1000 D                               0.279    138
##  7               1000 E                               0.347     99
##  8               1000 HR                              0.374    148
##  9               1001 ""                              0.206      8
## 10               1005 ""                              0.340      2
## # ... with 40 more rows
…
The loan amount provided to different prosper rating customer with different borrower rates is similar. Most of loan amount concentrates on $1000 - $25,000.

## # A tibble: 50 x 4
##    LoanOriginalAmount BorrowerState mean_LenderYield     n
##                 <int> <fct>                    <dbl> <int>
##  1               1000 ""                       0.158   521
##  2               1000 AK                       0.176     6
##  3               1000 AL                       0.253    21
##  4               1000 AR                       0.188    20
##  5               1000 AZ                       0.182    55
##  6               1000 CA                       0.187   251
##  7               1000 CO                       0.182    54
##  8               1000 CT                       0.166    21
##  9               1000 DC                       0.199     3
## 10               1000 DE                       0.147     8
## # ... with 40 more rows
…
The super high-interest loans have boomed in CA. We also can spot on few other states have very high interest rates and loan amount, such as FL, OR, NY, DC, MA.

## # A tibble: 50 x 4
##    IncomeRange DebtToIncomeRatio mean_CurrentDelinquencies     n
##    <fct>                   <dbl>                     <dbl> <int>
##  1 $1-24,999              0.0200                     0.857     7
##  2 $1-24,999              0.0300                     2.20     20
##  3 $1-24,999              0.0400                     1.14     37
##  4 $1-24,999              0.0500                     1.59     64
##  5 $1-24,999              0.0600                     1.77     60
##  6 $1-24,999              0.0700                     1.04     72
##  7 $1-24,999              0.0800                     1.84     87
##  8 $1-24,999              0.0900                     1.10     84
##  9 $1-24,999              0.100                      1.14    102
## 10 $1-24,999              0.110                      1.03    113
## # ... with 40 more rows
…
Description Two

Loan Provider Profitability

This time I want to know how different between two similar prosper ratings. So I compared each pair of prosper ratings, such as: AA and A, A and B, etc. We can see the prosper rating ratio increases from 0.65 to 0.95. Especially, there is a big gap from AA/A to A/B.

In terms of the variety of income range, A/B and D/E ratio go up with the income range. B/C ratio goes up with the income range but significantly drop in the end. C/D and E/HR ratio go down with the income range. AA/A ratio almost stays the same.

Based on this diagram, we can find the perfect borrower APR for each borrower with differet income and prosper rating. This is also important for loan providers to measure their profitability.

Plot Three

## # A tibble: 50 x 4
##    ProsperRating..Alpha. EstimatedLoss mean_CurrentDelinquencies     n
##    <fct>                         <dbl>                     <dbl> <int>
##  1 A                            0.0200                    0.235    888
##  2 A                            0.0210                    0.0665  1233
##  3 A                            0.0224                    0.0832   709
##  4 A                            0.0249                    0.168   1366
##  5 A                            0.0260                    0.196    403
##  6 A                            0.0274                    0.113   1049
##  7 A                            0.0299                    0.136   1304
##  8 A                            0.0324                    0.162   1199
##  9 A                            0.0325                    0.0943   106
## 10 A                            0.0330                    0.134    687
## # ... with 40 more rows
…
